[gd_scene load_steps=2 format=3 uid="uid://win7no30ddge"]

[ext_resource type="Script" path="res://chunks/chunk_mgr.gd" id="1_xqm16"]

[node name="ChunkMgr" type="Node3D"]
script = ExtResource("1_xqm16")
