{
	"chars": {
		"roenji": {
			"avatar": "res://chars/roenji/portrait.png",
			"name": "Роэнжи"
		}
	},
	"dialog": {
		"entry": {
			"char": "roenji",
			"editor": {
				"px": 280,
				"py": 100
			},
			"opts": [
				{
					"fcn": "stop_train",
					"filter_fcn": "train_running",
					"icon": "res://chars/roenji/ic_pause.png",
					"text": "Останови здесь"
				},
				{
					"fcn": "start_train",
					"filter_fcn": "train_stopped",
					"icon": "res://chars/roenji/ic_forward.png",
					"text": "Поехали дальше"
				},
				{
					"text": "*что-нить на поболтать*",
					"to": "entry2"
				}
			],
			"text_mode": "entry"
		},
		"entry2": {
			"char": "roenji",
			"editor": {
				"px": 860,
				"py": 120
			},
			"opts": [
				{
					"text": "[уйти]"
				}
			],
			"text": "*простой ответ*"
		}
	}
}
