[gd_scene load_steps=6 format=3 uid="uid://dgv35kivs1pou"]

[ext_resource type="Texture2D" uid="uid://bjlthis3jjinr" path="res://train/btn_uncheck_normal.png" id="1_wpjs4"]
[ext_resource type="Texture2D" uid="uid://jxhr83jkuhux" path="res://train/btn_check_normal.png" id="2_w4gha"]
[ext_resource type="Script" path="res://train/cam_btn.gd" id="3_3wbye"]
[ext_resource type="Texture2D" uid="uid://cfu66aofpfrnk" path="res://train/btn_check_active.png" id="4_b3ruq"]
[ext_resource type="Texture2D" uid="uid://by27m3vkvjl2k" path="res://train/btn_uncheck_active.png" id="5_d565r"]

[node name="CamBtn" type="TextureButton"]
anchors_preset = -1
anchor_right = 0.038
anchor_bottom = 0.074
offset_right = 0.223999
offset_bottom = 0.0480003
texture_normal = ExtResource("1_wpjs4")
texture_hover = ExtResource("2_w4gha")
ignore_texture_size = true
stretch_mode = 5
script = ExtResource("3_3wbye")
active_normal = ExtResource("5_d565r")
active_hover = ExtResource("4_b3ruq")
inactive_normal = ExtResource("1_wpjs4")
inactive_hover = ExtResource("2_w4gha")

[node name="Label" type="Label" parent="."]
visible = false
layout_mode = 1
anchors_preset = -1
anchor_left = 1.091
anchor_right = 1.091
anchor_bottom = 1.0
offset_left = -0.00400543
offset_right = 207.996
grow_horizontal = 0
grow_vertical = 2
text = "CamBtn"
vertical_alignment = 1

[connection signal="mouse_entered" from="." to="." method="_on_mouse_entered"]
[connection signal="mouse_exited" from="." to="." method="_on_mouse_exited"]
