[gd_scene load_steps=4 format=3 uid="uid://cn7467apdye6l"]

[ext_resource type="Script" path="res://chars/dog/dawg.gd" id="1_w515r"]
[ext_resource type="Texture2D" uid="uid://b1l3ufw2yt748" path="res://chars/dog/dog64.png" id="2_gca7a"]

[sub_resource type="CapsuleShape3D" id="CapsuleShape3D_g5qg0"]
radius = 0.31222
height = 1.75

[node name="Dawg" type="StaticBody3D"]
script = ExtResource("1_w515r")

[node name="CollisionShape3D" type="CollisionShape3D" parent="."]
transform = Transform3D(1, 0, 0, 0, 1, 0, 0, 0, 1, 0, 0.875885, 0)
shape = SubResource("CapsuleShape3D_g5qg0")

[node name="Sprite3D" type="Sprite3D" parent="."]
transform = Transform3D(1, 0, 0, 0, 1, 0, 0, 0, 1, 0.0558645, 0.913008, 0)
pixel_size = 0.0138
alpha_cut = 2
texture_filter = 2
texture = ExtResource("2_gca7a")

[node name="Label3D" type="Label3D" parent="."]
transform = Transform3D(1, 0, 0, 0, 1, 0, 0, 0, 1, 0, 1.95955, 0)
visible = false
billboard = 1
modulate = Color(0.721569, 0.721569, 0.721569, 1)
text = "Сабака"

[connection signal="mouse_entered" from="." to="." method="_on_mouse_entered"]
[connection signal="mouse_exited" from="." to="." method="_on_mouse_exited"]
